[
    {
        "QuickLook":
        [
            {   "username": "suv3700@gmail.com",
                "password" : "Addprod2cart", 
                "productName": "French Chef Salt & Pepper Mill Set",
                "subCategory" : "Salt & Pepper Mills", 
                "key" : "quickLook"          
            }
        ]
     
       
    }
]